{
 "swagger": "2.0",
 "host": "127.0.0.1:4000",
 "basePath": "/",
 "schemes": [
  "http"
 ],
 "info": {
  "title": "hapi-api",
  "version": "0.0.1"
 },
 "tags": [],
 "paths": {
  "/health": {
   "get": {
    "summary": "health endpoint",
    "operationId": "getHealth",
    "tags": [
     "health"
    ],
    "responses": {
     "200": {
      "schema": {
       "$ref": "#/definitions/HeatlhResponse"
      },
      "description": "Successful"
     }
    }
   }
  }
 },
 "definitions": {
  "HeatlhResponse": {
   "type": "object",
   "x-meta": {
    "className": "HeatlhResponse"
   },
   "properties": {
    "ok": {
     "type": "boolean",
     "description": "The status of the server",
     "example": true
    }
   }
  }
 }
}